Project 1: Exploratory Data Analysis
…
Part 3a: Using the 6 dplyr functions

realcovid %>% group_by(Med..Age) %>% select(Mortality.Ratio) %>% 
    arrange(desc(Med..Age))

## # A tibble: 166 x 2
## # Groups:   Med..Age [34]
##    Med..Age Mortality.Ratio
##    <fct>              <dbl>
##  1 48                  1.91
##  2 47                 11.8 
##  3 46                  3.38
##  4 46                  2.19
##  5 46                  2.74
##  6 45                  4.47
##  7 45                  2.06
##  8 45                  4.04
##  9 45                  2.21
## 10 45                  3.05
## # … with 156 more rows

realcovid %>% group_by(Med..Age) %>% select(Mortality.Ratio) %>% 
    arrange(desc(Mortality.Ratio))

## # A tibble: 166 x 2
## # Groups:   Med..Age [34]
##    Med..Age Mortality.Ratio
##    <fct>              <dbl>
##  1 20                 28.9 
##  2 47                 11.8 
##  3 29                 10.6 
##  4 28                 10   
##  5 42                  9.32
##  6 28                  8.6 
##  7 17                  7.04
##  8 41                  6.55
##  9 28                  6.25
## 10 41                  6.2 
## # … with 156 more rows

realcovid %>% group_by(Country) %>% summarise(Confirmed) %>% 
    arrange(desc(Confirmed))

## # A tibble: 166 x 2
##    Country       Confirmed
##    <fct>             <dbl>
##  1 United States   6933548
##  2 India           5646010
##  3 Brazil          4591364
##  4 Russia          1117487
##  5 Colombia         784268
##  6 Peru             776546
##  7 Mexico           710049
##  8 Spain            693556
##  9 South Africa     665188
## 10 Argentina        664799
## # … with 156 more rows

realcovid %>% group_by(Country) %>% summarise(Density..P.Km..) %>% 
    arrange(desc(Density..P.Km..))

## # A tibble: 166 x 2
##    Country    Density..P.Km..
##    <fct>                <int>
##  1 Singapore             8358
##  2 Hong Kong             7140
##  3 Bahrain               2239
##  4 Maldives              1802
##  5 Malta                 1380
##  6 Bangladesh            1265
##  7 Taiwan                 673
##  8 Barbados               668
##  9 Lebanon                667
## 10 Mauritius              626
## # … with 156 more rows
…
